{
    /**
     * Osimis WebViewer Configuration
     **/
    "WebViewer" : {
        "StudyDownloadEnabled": true,
        "VideoDisplayEnabled": true,
        "AnnotationStorageEnabled": true,
        "ShortTermCacheEnabled" : true,
        "ShortTermCacheDebugLogsEnabled" : true,
        "ShortTermCachePrefetchOnInstanceStored" : true,
        "KeyImageCaptureEnabled" : true
    }
}